Accessing and analysing the OpenAIRE Research Graph data dumps • openairegraph
…
Loading a dump into R

Several dumps from the OpenAIRE Research Graph are available on Zenodo(Manghi, Atzori, et al. 2019). So far, I tested openairegraph to work with the dump h2020_results.gz, which comprises research outputs funded by the European Commission’s Horizon 2020 funding programme (H2020).

After downloading it, the file can be imported into R using the jsonlite package(Ooms 2014). The following example shows that each line contains a record identifier and the corresponding Base64-encoded XML file. Base64 is a standard that allows file compression in a text-based format.

library(jsonlite) # tools to work with json files
library(tidyverse) # tools from the tidyverse useful for data analysis
# download the file from Zenodo and store it locally
oaire <- jsonlite::stream_in(file("data/h2020_results.gz"), verbose = FALSE) %>%
  tibble::as_tibble()
oaire
#> # A tibble: 92,218 x 2
#>    `_id`$`$oid`        body$`$binary`                              $`$type`
#>    <chr>               <chr>                                       <chr>   
#>  1 5dbc22f81e82127b58… UEsDBBQACAgIAIRiYU8AAAAAAAAAAAAAAAAEAAAAYm… 00      
#>  2 5dbc22f9b531c546e8… UEsDBBQACAgIAIRiYU8AAAAAAAAAAAAAAAAEAAAAYm… 00      
#>  3 5dbc22fa45e3122d97… UEsDBBQACAgIAIViYU8AAAAAAAAAAAAAAAAEAAAAYm… 00      
#>  4 5dbc22fa45e3122d97… UEsDBBQACAgIAIViYU8AAAAAAAAAAAAAAAAEAAAAYm… 00      
#>  5 5dbc22fa4e0c061a4d… UEsDBBQACAgIAIViYU8AAAAAAAAAAAAAAAAEAAAAYm… 00      
#>  6 5dbc22fb81f3c12c00… UEsDBBQACAgIAIViYU8AAAAAAAAAAAAAAAAEAAAAYm… 00      
#>  7 5dbc22fb895be12461… UEsDBBQACAgIAIViYU8AAAAAAAAAAAAAAAAEAAAAYm… 00      
#>  8 5dbc22fbe56570673e… UEsDBBQACAgIAIViYU8AAAAAAAAAAAAAAAAEAAAAYm… 00      
#>  9 5dbc22fc81f3c12bfe… UEsDBBQACAgIAIViYU8AAAAAAAAAAAAAAAAEAAAAYm… 00      
#> 10 5dbc22fcb531c546e8… UEsDBBQACAgIAIZiYU8AAAAAAAAAAAAAAAAEAAAAYm… 00      
#> # … with 92,208 more rows
…
About 77% of research publications under the H2020 open access mandate are openly available. Figure @ref(fig:variations) highlights a generally high rate of compliance with the open access mandate, however, uptake levels vary the funding schemes. In particular, ERC grants and Marie Skłodowska-Curie activities show higher levels of compliance compared to the overall average.

How does the rate of compliance with the open access mandate of H2020-funded projects from the University of Göttingen benchmark against related projects?

Because of their large variations, I want to put the open access rates of H2020-funded projects in context when presenting the share for projects affiliated with the University of Göttingen. Again, the data analysis starts with loading the previously backed up file with decoded and parsed data, choosing project and access information from it.

oaire_df <- jsonlite::stream_in(file("data/h2020_parsed.json"), verbose = FALSE) %>%
  tibble::as_tibble()

pubs_projects <- oaire_df %>%
  select(id, type, best_access_right, linked_projects) %>%
  unnest(linked_projects) 
pubs_projects
#> # A tibble: 136,298 x 12
#>    id    type  best_access_rig… to    project_title funder funding_level_0
#>    <chr> <chr> <chr>            <chr> <chr>         <chr>  <chr>          
#>  1 data… publ… Open Access      proj… Planning and… Europ… H2020          
#>  2 data… publ… Open Access      proj… Cortical alg… Europ… FP7            
#>  3 data… publ… Open Access      proj… Human Brain … Europ… H2020          
#>  4 data… publ… Restricted       proj… Implementati… Europ… H2020          
#>  5 data… publ… Open Access      proj… The power of… Europ… H2020          
#>  6 data… publ… Open Access      proj… A psychologi… Wellc… UNKNOWN        
#>  7 data… publ… Open Access      proj… Effects of N… Europ… H2020          
#>  8 data… publ… Open Access      proj… Aggression s… Europ… FP7            
#>  9 data… publ… Open Access      proj… Global trend… Europ… H2020          
#> 10 data… publ… Open Access      proj… Mapping grav… Europ… H2020          
#> # … with 136,288 more rows, and 5 more variables: funding_level_1 <chr>,
#> #   project_code <chr>, project_acronym <chr>, contract_type <chr>,
#> #   funding_level_2 <chr>
…
